{
  "source": "smartcontract.com",
  "version": "0.1",
  "id" : "5768655",
  "name": "Coffee Contract",
  "description": "Alex will buy Steve a capuccino. Steve will buy Alex a capuccino.",
  "terms": [
    {
      "type": "SEO",
      "name": "secondPayment",
      "escrow": "firstEscrow",
      "expected": {
        "type": "ranking",
        "min": "1",
        "max": "7",
        "provider": "semrush.com",
        "deadline": "212113450000000",
        "result": "lyricsfreak.com",
        "query": {
          "phrase": "karma police",
          "source": "google",
          "locale": "US"
        }
      },
      "success": {
        "actions": [
          {
            "type": "payment",
            "to": [ { "address": "1NuzkDVvah6fEEfnsVUxojS97LD5e8CE3N" } ]
          }
        ]
      },
      "failure": {
        "actions": [
          {
            "type": "payment",
            "to": [ { "address": "1NuzkDVvah6fEEfnsVUxojS97LD5e8CE3N" } ]
          }
        ]
      }
    }
  ],
  "escrows": [
    {
      "address": "1NuzkDVvah6fEEfnsVUxojS67LD5e8CE3N",
      "name": "firstEscrow",
      "currency": "Bitcoin",
      "amount": "50000"
    }
  ],
  "attachments": [
    { "url": "blah.com" }
  ]
}








//curl -d '{"contract": {"source": "smartcontract.com", "name": "Seo Contract", "id":"8867676", "description": "Seo contract description", "terms": [{"type": "SEO", "name": "rankingTerm", "escrow": "firstEscrow", "expected": {"type": "ranking", "min": "1", "max": "7", "provider": "semrush.com", "deadline": "212113450000000", "result": "sergeynazarov.com","query": {"phrase": "good giraffe porn","source": "google","locale": "US"}},"success": {"actions": [{"type": "payment","to": [{"address": "1NuzkDVvah6fEEfnsVUxojS97LD5e8CE3N"}]}]},"failure": {"actions": [{"type": "payment","to": [{"address": "1NuzkDVvah6fEEfnsVUxojS97LD5e8CE3N"}]}]}}],"escrows": [{"address": "1NuzkDVvah6fEEfnsVUxojS67LD5e8CE3N","name": "firstEscrow","currency": "Bitcoin","amount": 50000}],"attachments": [{ "url": "blah.com" }]}}' -H "Content-Type: application/json" http://localhost:8889/smartcontracts/startcontract
